<svg width="83" height="83" viewBox="0 0 83 83" fill="none" xmlns="http://www.w3.org/2000/svg">
<path d="M16.0512 74.2779C23.0875 79.7265 31.9193 83 41.5 83C51.9859 83 61.5448 79.1059 68.8394 72.7138C68.9275 72.6354 68.8838 72.5839 68.797 72.6354C65.5229 74.8226 56.1941 79.5972 41.5006 79.5972C28.7325 79.5972 20.6626 76.7462 16.1059 74.202C16.0185 74.1576 15.9863 74.2239 16.0512 74.2779ZM44.3171 76.3989C54.5297 76.3989 65.7524 73.6142 72.464 68.1013C74.3007 66.599 76.0499 64.6008 77.6172 61.9138C78.5185 60.3677 79.4006 58.531 80.1206 56.7263C80.1527 56.6382 80.0981 56.5951 80.0319 56.6942C73.7902 65.8832 55.7158 71.6147 37.0532 71.6147C23.8615 71.6147 9.66752 67.3939 4.11053 59.3361C4.05588 59.2615 4.00124 59.2937 4.03467 59.378C9.21108 70.3857 24.9158 76.3989 44.3171 76.3989ZM33.1594 58.138C11.9189 58.138 1.90355 48.2403 0.0867892 41.4875C0.0642886 41.3903 0 41.4109 0 41.4997C0 43.7731 0.227578 46.7084 0.618445 48.6545C0.805521 49.6037 1.57633 51.09 2.70714 52.2759C7.85012 57.6396 20.6729 65.1539 42.8802 65.1539C73.1358 65.1539 80.0544 55.0709 81.4661 51.755C82.4761 49.3838 83 45.0986 83 41.4997C83 40.6289 82.9781 39.9324 82.9454 39.2494C82.9454 39.1388 82.8804 39.1298 82.8586 39.2378C81.3478 47.3515 55.4973 58.138 33.1594 58.138ZM4.0006 23.696C2.783 26.1122 1.43489 30.189 1.03374 32.2978C0.858236 33.2021 0.932809 33.6368 1.2491 34.3115C3.79488 39.715 16.6716 48.3606 46.7092 48.3606C65.0336 48.3606 79.2688 43.8574 81.5748 35.6382C81.999 34.1249 82.0222 32.5281 81.477 30.3755C80.8676 27.9702 79.7252 25.1643 78.759 23.1957C78.7275 23.1307 78.6709 23.141 78.6825 23.2162C79.0425 33.9963 48.992 40.9434 33.8305 40.9434C17.4083 40.9434 3.7068 34.3976 3.7068 26.1328C3.7068 25.3385 3.87138 24.5436 4.07646 23.7172C4.09831 23.642 4.03403 23.6298 4.0006 23.696ZM68.9069 10.4605C69.0812 10.7344 69.1673 11.0264 69.1673 11.4187C69.1673 16.0299 55.0614 24.1874 32.6046 24.1874C16.1046 24.1874 13.0156 18.0641 13.0156 14.1694C13.0156 12.777 13.5492 11.3531 14.7244 9.90672C14.7886 9.82054 14.734 9.7871 14.6594 9.85206C12.5161 11.6695 10.547 13.714 8.81893 15.9212C7.99412 16.9663 7.48111 17.8911 7.48111 18.4449C7.48111 26.5148 27.7085 32.366 46.6224 32.366C66.7745 32.366 75.769 25.7849 75.769 20C75.769 17.9336 74.9647 16.7264 72.9069 14.3867C71.5716 12.8651 70.3084 11.6258 68.9706 10.4071C68.9069 10.3524 68.8619 10.3961 68.9069 10.4605ZM62.7289 5.85117C56.5091 2.12167 49.2871 0 41.5006 0C33.6602 0 26.2196 2.19628 19.9779 6.02417C18.1059 7.17665 17.0522 8.10082 17.0522 9.28804C17.0522 12.7879 25.2295 16.5522 39.7379 16.5522C54.0952 16.5522 65.2304 12.4291 65.2304 8.46097C65.231 7.51365 64.4023 6.85123 62.7289 5.85117Z" fill="#000000"/>
</svg>
